PING 192.168.43.208 (192.168.43.208) 56(84) bytes of data.
64 bytes from 192.168.43.208: icmp_seq=1 ttl=64 time=203 ms

--- 192.168.43.208 ping statistics ---
1 packets transmitted, 1 received, 0% packet loss, time 0ms
rtt min/avg/max/mdev = 203.334/203.334/203.334/0.000 ms
PING 192.168.43.208 (192.168.43.208) 56(84) bytes of data.
64 bytes from 192.168.43.208: icmp_seq=1 ttl=64 time=5.98 ms

--- 192.168.43.208 ping statistics ---
1 packets transmitted, 1 received, 0% packet loss, time 0ms
rtt min/avg/max/mdev = 5.981/5.981/5.981/0.000 ms
PING 192.168.43.208 (192.168.43.208) 56(84) bytes of data.
64 bytes from 192.168.43.208: icmp_seq=1 ttl=64 time=4.69 ms

--- 192.168.43.208 ping statistics ---
1 packets transmitted, 1 received, 0% packet loss, time 0ms
rtt min/avg/max/mdev = 4.699/4.699/4.699/0.000 ms
PING 192.168.43.208 (192.168.43.208) 56(84) bytes of data.
64 bytes from 192.168.43.208: icmp_seq=1 ttl=64 time=211 ms

--- 192.168.43.208 ping statistics ---
1 packets transmitted, 1 received, 0% packet loss, time 0ms
rtt min/avg/max/mdev = 211.596/211.596/211.596/0.000 ms
PING 192.168.43.208 (192.168.43.208) 56(84) bytes of data.
64 bytes from 192.168.43.208: icmp_seq=1 ttl=64 time=212 ms

--- 192.168.43.208 ping statistics ---
1 packets transmitted, 1 received, 0% packet loss, time 0ms
rtt min/avg/max/mdev = 212.675/212.675/212.675/0.000 ms
PING 192.168.43.208 (192.168.43.208) 56(84) bytes of data.
64 bytes from 192.168.43.208: icmp_seq=1 ttl=64 time=216 ms

--- 192.168.43.208 ping statistics ---
1 packets transmitted, 1 received, 0% packet loss, time 0ms
rtt min/avg/max/mdev = 216.091/216.091/216.091/0.000 ms
PING 192.168.43.208 (192.168.43.208) 56(84) bytes of data.
64 bytes from 192.168.43.208: icmp_seq=1 ttl=64 time=214 ms

--- 192.168.43.208 ping statistics ---
1 packets transmitted, 1 received, 0% packet loss, time 0ms
rtt min/avg/max/mdev = 214.567/214.567/214.567/0.000 ms
PING 192.168.43.208 (192.168.43.208) 56(84) bytes of data.
64 bytes from 192.168.43.208: icmp_seq=1 ttl=64 time=215 ms

--- 192.168.43.208 ping statistics ---
1 packets transmitted, 1 received, 0% packet loss, time 0ms
rtt min/avg/max/mdev = 215.368/215.368/215.368/0.000 ms
PING 192.168.43.208 (192.168.43.208) 56(84) bytes of data.
64 bytes from 192.168.43.208: icmp_seq=1 ttl=64 time=216 ms

--- 192.168.43.208 ping statistics ---
1 packets transmitted, 1 received, 0% packet loss, time 0ms
rtt min/avg/max/mdev = 216.253/216.253/216.253/0.000 ms
PING 192.168.43.208 (192.168.43.208) 56(84) bytes of data.
64 bytes from 192.168.43.208: icmp_seq=1 ttl=64 time=216 ms

--- 192.168.43.208 ping statistics ---
1 packets transmitted, 1 received, 0% packet loss, time 0ms
rtt min/avg/max/mdev = 216.491/216.491/216.491/0.000 ms
