
Starting Nmap 7.01 ( https://nmap.org ) at 2018-12-15 18:06 -05
Nmap scan report for 192.168.43.1
Host is up (0.0013s latency).
Nmap scan report for josue-X23 (192.168.43.14)
Host is up (0.000085s latency).
Nmap scan report for android-bf2ed20960558c1d (192.168.43.208)
Host is up (0.028s latency).
Nmap done: 256 IP addresses (3 hosts up) scanned in 3.97 seconds
